[gd_scene load_steps=5 format=3 uid="uid://0brnlya6fxbu"]

[ext_resource type="Texture2D" uid="uid://c213yjrkdijcs" path="res://graphics/projectiles/blue.png" id="1_663rr"]
[ext_resource type="Script" path="res://scenes/projectiles/laser/laser.gd" id="1_qrgua"]
[ext_resource type="AudioStream" uid="uid://dl5g2y52e0iad" path="res://audio/laser.wav" id="3_aw4ym"]

[sub_resource type="CapsuleShape2D" id="CapsuleShape2D_sbwua"]
radius = 4.0
height = 86.0

[node name="Laser" type="Area2D"]
collision_layer = 4
collision_mask = 7
script = ExtResource("1_qrgua")

[node name="Sprite2D" type="Sprite2D" parent="."]
position = Vector2(0, 36)
texture = ExtResource("1_663rr")

[node name="CollisionShape2D" type="CollisionShape2D" parent="."]
shape = SubResource("CapsuleShape2D_sbwua")

[node name="SelfDestructTimer" type="Timer" parent="."]
wait_time = 2.0
one_shot = true

[node name="AudioStreamPlayer2D" type="AudioStreamPlayer2D" parent="."]
stream = ExtResource("3_aw4ym")
autoplay = true

[connection signal="body_entered" from="." to="." method="_on_body_entered"]
[connection signal="timeout" from="SelfDestructTimer" to="." method="_on_self_destruct_timer_timeout"]
