[gd_scene load_steps=5 format=3 uid="uid://0cgqyiap1xpk"]

[ext_resource type="Texture2D" uid="uid://dhffby0oxkc64" path="res://graphics/objects/bed.png" id="1_p754s"]
[ext_resource type="Texture2D" uid="uid://da7qslouk65i4" path="res://graphics/objects/pillow_large.png" id="2_x6uv1"]
[ext_resource type="Texture2D" uid="uid://fcn4x0i1wb2k" path="res://graphics/objects/pillow_small.png" id="3_yae7d"]

[sub_resource type="RectangleShape2D" id="RectangleShape2D_q2naf"]
size = Vector2(633, 365)

[node name="Bed" type="StaticBody2D"]
collision_layer = 4
collision_mask = 11

[node name="Bed" type="Sprite2D" parent="."]
texture = ExtResource("1_p754s")

[node name="PillowLarge" type="Sprite2D" parent="."]
position = Vector2(215, 0)
rotation = 0.0349066
scale = Vector2(0.9, 0.9)
skew = 0.0174533
texture = ExtResource("2_x6uv1")

[node name="PillowSmall" type="Sprite2D" parent="."]
position = Vector2(126, -4)
rotation = 0.0174533
skew = 0.0174532
texture = ExtResource("3_yae7d")

[node name="CollisionShape2D" type="CollisionShape2D" parent="."]
position = Vector2(0.5, -0.5)
shape = SubResource("RectangleShape2D_q2naf")
