[gd_scene load_steps=6 format=3 uid="uid://qx76hvfxkbuh"]

[ext_resource type="Texture2D" uid="uid://bbh32c21itb3c" path="res://graphics/items/orb2.png" id="1_0a0hk"]
[ext_resource type="Script" path="res://scenes/items/item.gd" id="1_hckex"]
[ext_resource type="Texture2D" uid="uid://cdifssfukx7dh" path="res://graphics/decals/white.png" id="2_jfkhq"]
[ext_resource type="AudioStream" uid="uid://duu2xradwliq" path="res://audio/item.mp3" id="4_gu5jj"]

[sub_resource type="CircleShape2D" id="CircleShape2D_wwjfs"]
radius = 56.2228

[node name="Item" type="Area2D"]
collision_layer = 16
script = ExtResource("1_hckex")

[node name="Sprite2D" type="Sprite2D" parent="."]
texture = ExtResource("1_0a0hk")

[node name="CollisionShape2D" type="CollisionShape2D" parent="."]
shape = SubResource("CircleShape2D_wwjfs")

[node name="PointLight2D" type="PointLight2D" parent="."]
energy = 0.5
texture = ExtResource("2_jfkhq")
texture_scale = 0.4

[node name="AudioStreamPlayer2D" type="AudioStreamPlayer2D" parent="."]
stream = ExtResource("4_gu5jj")
volume_db = 10.0

[connection signal="body_entered" from="." to="." method="_on_body_entered"]
